Mastering Health Data Science Using R - 11 Logistic Regression
…
We can use the tidy() function from the broom package to display the estimated coefficients from the above model. This time we add the exponentiate = TRUE argument to exponentiate our coefficients so we can interpret them as estimated change in odds rather than log odds. For example, we can see below that those who answered at school have double the estimated odds of reporting e-cigarette use compared to those who took the survey at home/other, adjusting for grade, sex, and race and ethnicity.

tidy(mod_start, exponentiate=TRUE)
#> # A tibble: 13 × 5
#>   term        estimate std.error statistic   p.value
#>   <chr>          <dbl>     <dbl>     <dbl>     <dbl>
#> 1 (Intercept)   0.0100     0.154    -29.9  1.68e-196
#> 2 grade7th      1.56       0.175      2.54 1.10e-  2
#> 3 grade8th      2.63       0.161      6.02 1.73e-  9
#> 4 grade9th      3.99       0.155      8.93 4.41e- 19
#> 5 grade10th     6.81       0.151     12.7  7.94e- 37
#> # ℹ 8 more rows
…
11.2.2 Calibration Plot

Another useful plot is a calibration plot. This type of plot groups the data by the estimated probabilities and compares the mean probability with the observed proportion of observations in class 1. It visualizes how close our estimated distribution and true distribution are to each other. There are several packages that can create calibration plots, but we demonstrate how to do this using the ggplot2 package. First, we create a data frame with the predicted probabilities and the outcome variable. Additionally, we group this data into num_cuts groups based on the predicted probabilities using the cut() function. Within each group, we find the model’s predicted mean along with the observed proportion and estimated standard errors.

num_cuts <- 10
calib_data <-  data.frame(prob = pred_probs,
                          bin = cut(pred_probs, breaks = num_cuts),
                          class = mod_start$y)
calib_data <- calib_data %>% 
             group_by(bin) %>% 
             summarize(observed = sum(class)/n(), 
                       expected = sum(prob)/n(), 
                       se = sqrt(observed*(1-observed)/n()))
calib_data
#> # A tibble: 10 × 4
#>   bin              observed expected      se
#>   <fct>               <dbl>    <dbl>   <dbl>
#> 1 (0.00488,0.0322]   0.0212   0.0203 0.00188
#> 2 (0.0322,0.0592]    0.0440   0.0441 0.00328
#> 3 (0.0592,0.0862]    0.0621   0.0708 0.00451
#> 4 (0.0862,0.113]     0.0986   0.0988 0.00587
#> 5 (0.113,0.14]       0.131    0.123  0.0131 
#> # ℹ 5 more rows
…
Figure 11.1: Calibration Plot.

# Insert your solution here:

11.3 Variable Selection and Likelihood Ratio Tests

In the last chapter, we introduced the step() function to implement stepwise variable selection. This function also works with glm objects. In this case, we use this function to implement backward selection from a larger set of covariates. We first remove any observations with NA values to ensure that our training data does not change size as the formula changes.

nyts_sub <- nyts %>% 
  dplyr::select(location, sex, grade, otherlang, grades_in_past_year, 
                perceived_e_cig_use, race_and_ethnicity, LGBT, 
                psych_distress, family_affluence, e_cig_use) %>%
  na.omit()
head(nyts_sub)
#> # A tibble: 6 × 11
#>   location sex    grade otherlang grades_in_past_year perceived_e_cig_use
#>   <fct>    <fct>  <fct> <fct>     <fct>                             <dbl>
#> 1 school   Male   6th   No        Mostly A's                            0
#> 2 school   Female 6th   No        Mostly A's                            0
#> 3 school   Female 6th   No        Mostly C's                            0
#> 4 school   Female 6th   No        Mostly A's                            0
#> 5 school   Female 6th   No        Mostly B's                            0
#> # ℹ 1 more row
#> # ℹ 5 more variables: race_and_ethnicity <chr>, LGBT <chr>,
#> #   psych_distress <chr>, family_affluence <chr>, e_cig_use <fct>
…
