Mastering Health Data Science in R - 1 Welcome
…
library(tidyverse)
#> ── Attaching core tidyverse packages ──────────────── tidyverse 2.0.0 ──
#> ✔ dplyr     1.1.3     ✔ readr     2.1.4
#> ✔ forcats   1.0.0     ✔ stringr   1.5.0
#> ✔ ggplot2   3.4.4     ✔ tibble    3.2.1
#> ✔ lubridate 1.9.2     ✔ tidyr     1.3.0
#> ✔ purrr     1.0.1     
#> ── Conflicts ────────────────────────────────── tidyverse_conflicts() ──
#> ✖ dplyr::filter() masks stats::filter()
#> ✖ dplyr::lag()    masks stats::lag()
#> ℹ Use the conflicted package (<http://conflicted.r-lib.org/>) to force all conflicts to become errors

df <- read_csv("data/fake_names.csv", show_col_types=FALSE)
df
#> # A tibble: 6 × 5
#>   Name                  Age DOB     City            State
#>   <chr>               <dbl> <chr>   <chr>           <chr>
#> 1 Ken Irwin              37 6/28/85 Providence      RI   
#> 2 Delores Whittington    56 4/28/67 Smithfield      RI   
#> 3 Daniel Hughes          41 5/22/82 Providence      RI   
#> 4 Carlos Fain            83 2/2/40  Warren          RI   
#> 5 James Alford           67 2/23/56 East Providence RI   
#> # ℹ 1 more row
…
