Mastering Health Data Science Using R - 3 Working with Data Files in R
…
read.csv("data/fake_names.csv")
#>                  Name Age     DOB            City State
#> 1           Ken Irwin  37 6/28/85      Providence    RI
#> 2 Delores Whittington  56 4/28/67      Smithfield    RI
#> 3       Daniel Hughes  41 5/22/82      Providence    RI
#> 4         Carlos Fain  83  2/2/40          Warren    RI
#> 5        James Alford  67 2/23/56 East Providence    RI
#> 6        Ruth Alvarez  34 9/22/88      Providence    RI

readr::read_csv("data/fake_names.csv", show_col_types=FALSE)
#> # A tibble: 6 × 5
#>   Name                  Age DOB     City            State
#>   <chr>               <dbl> <chr>   <chr>           <chr>
#> 1 Ken Irwin              37 6/28/85 Providence      RI   
#> 2 Delores Whittington    56 4/28/67 Smithfield      RI   
#> 3 Daniel Hughes          41 5/22/82 Providence      RI   
#> 4 Carlos Fain            83 2/2/40  Warren          RI   
#> 5 James Alford           67 2/23/56 East Providence RI   
#> # ℹ 1 more row
…
Excel Files: You can read in a .xls or .xlsx file using readxl::read_excel(), which allows you to specify a sheet and/or cell range within a file. (e.g. read_excel('test.xlsx', sheet="Sheet1"))

SAS: haven::read_sas() reads in .sas7bdat or .sas7bcat files, haven::read_xpt() reads in SAS transport files

Stata: haven::read_dta() reads in .dta files

SPSS: haven::read_spss() reads in .spss files

3.2 Summarizing and Creating Data Columns

We will now look at the data we have loaded into the data frame called pain. We use the head() function to print the first six rows. However, note that we have so many columns that all not of the columns are displayed! For those that are displayed, we can see the data type for each column under the column name. For example, we can see that the column PATIENT_NUM is a numeric column of type dbl. Because patients identification numbers are technically nominal in nature, we might consider whether we should make convert this column to a factor or a character representation later on. We can use the names() function to print all the column names. Note that columns X101 to X238 correspond to numbers on a body pain map (see the data documentation for the image of this map). Each of these columns has a 1 if the patient indicated that they have pain in that corresponding body part and a 0 otherwise.

head(pain)
#> # A tibble: 6 × 92
#>   PATIENT_NUM  X101  X102  X103  X104  X105  X106  X107  X108  X109
#>         <dbl> <dbl> <dbl> <dbl> <dbl> <dbl> <dbl> <dbl> <dbl> <dbl>
#> 1       13118     0     0     0     0     0     0     0     0     0
#> 2       21384     0     0     0     0     0     0     0     0     0
#> 3        6240     0     0     0     0     0     0     0     0     0
#> 4        1827     0     0     0     0     0     0     0     0     0
#> 5       11309     0     0     0     0     0     0     0     0     0
#> # ℹ 1 more row
#> # ℹ 82 more variables: X110 <dbl>, X111 <dbl>, X112 <dbl>, X113 <dbl>,
#> #   X114 <dbl>, X115 <dbl>, X116 <dbl>, X117 <dbl>, X118 <dbl>,
#> #   X119 <dbl>, X120 <dbl>, X121 <dbl>, X122 <dbl>, X123 <dbl>,
#> #   X124 <dbl>, X125 <dbl>, X126 <dbl>, X127 <dbl>, X128 <dbl>,
#> #   X129 <dbl>, X130 <dbl>, X131 <dbl>, X132 <dbl>, X133 <dbl>,
#> #   X134 <dbl>, X135 <dbl>, X136 <dbl>, X201 <dbl>, X202 <dbl>, …
…
is.factor(pain$PAT_SEX)
#> [1] FALSE

pain$PAT_SEX <- as.factor(pain$PAT_SEX)
is.factor(pain$PAT_SEX)
#> [1] TRUE

3.2.3 Other Summary Functions

Sometimes we want to summarize information across multiple columns or rows. We can use the rowSums() and colSums() functions to sum over the rows or columns of a matrix or data frame. We first subset the data to the body pain map regions. In the first line of code, I select the column names pertaining to these columns. This allows me to select those columns in the second line of code and store this subset of the data as a new data frame called pain_body_map.

body_map_cols <- names(pain)[2:75]
pain_body_map <- pain[, body_map_cols]
head(pain_body_map)
#> # A tibble: 6 × 74
#>    X101  X102  X103  X104  X105  X106  X107  X108  X109  X110  X111
#>   <dbl> <dbl> <dbl> <dbl> <dbl> <dbl> <dbl> <dbl> <dbl> <dbl> <dbl>
#> 1     0     0     0     0     0     0     0     0     0     0     0
#> 2     0     0     0     0     0     0     0     0     0     0     0
#> 3     0     0     0     0     0     0     0     0     0     0     0
#> 4     0     0     0     0     0     0     0     0     0     0     0
#> 5     0     0     0     0     0     0     0     0     0     0     0
#> # ℹ 1 more row
#> # ℹ 63 more variables: X112 <dbl>, X113 <dbl>, X114 <dbl>, X115 <dbl>,
#> #   X116 <dbl>, X117 <dbl>, X118 <dbl>, X119 <dbl>, X120 <dbl>,
#> #   X121 <dbl>, X122 <dbl>, X123 <dbl>, X124 <dbl>, X125 <dbl>,
#> #   X126 <dbl>, X127 <dbl>, X128 <dbl>, X129 <dbl>, X130 <dbl>,
#> #   X131 <dbl>, X132 <dbl>, X133 <dbl>, X134 <dbl>, X135 <dbl>,
#> #   X136 <dbl>, X201 <dbl>, X202 <dbl>, X203 <dbl>, X204 <dbl>, …
…
