Mastering Health Data Science Using R - 5 Data Transformations and Summaries
…
5.1 Tibbles and Data Frames

Take a look at the class of NHANESsample. As we might expect, the data is stored as a data frame.

class(NHANESsample)
#> [1] "data.frame"

However, the tidyverse also works with another data structure called a tibble. A tibble has all the properties of data frames that we have learned so far, but they are a more modern version of a data frame. To convert our data to this data structure we use the as_tibble() function. In practice, there are only very slight difference between the two data structures, and you generally do not need to convert data frames to tibbles. Below we convert our data from a data frame to a tibble and print the head of the data before converting it back to a data frame and repeating. You can see the two structures have a slightly different print statement but are otherwise very similar.

nhanes_df <- as_tibble(NHANESsample)
print(head(nhanes_df))
#> # A tibble: 6 × 21
#>      ID   AGE SEX   RACE      EDUCATION INCOME SMOKE  YEAR  LEAD BMI_CAT
#>   <dbl> <dbl> <fct> <fct>     <fct>      <dbl> <fct> <dbl> <dbl> <fct>  
#> 1     2    77 Male  Non-Hisp… MoreThan…   5    Neve…  1999   5   BMI<=25
#> 2     5    49 Male  Non-Hisp… MoreThan…   5    Quit…  1999   1.6 25<BMI…
#> 3    12    37 Male  Non-Hisp… MoreThan…   4.93 Neve…  1999   2.4 BMI>=30
#> 4    13    70 Male  Mexican … LessThan…   1.07 Quit…  1999   1.6 25<BMI…
#> 5    14    81 Male  Non-Hisp… LessThan…   2.67 Stil…  1999   5.5 25<BMI…
#> # ℹ 1 more row
#> # ℹ 11 more variables: LEAD_QUANTILE <fct>, HYP <dbl>, ALC <chr>,
#> #   DBP1 <dbl>, DBP2 <dbl>, DBP3 <dbl>, DBP4 <dbl>, SBP1 <dbl>,
#> #   SBP2 <dbl>, SBP3 <dbl>, SBP4 <dbl>
…
