Mastering Health Data Science Using R - 6 Merging and Reshaping Data
…
6  Merging and Reshaping Data

In this chapter, we continue to look at some of the ways to manipulate data using the tidyverse packages. In particular, we will look at reshaping and merging data frames in order to get the data in the format we want. When reshaping data, we can convert between wide form (more columns, fewer rows) and long form (fewer columns, more rows). We can also use data pivots to put our data into what is called tidy form. Additionally, we will look at combining information from multiple data frames into a single data frame. The key ideas when merging data are to think about what the common information is between the data frames and to consider which values we want to keep.

For this chapter, we will use three data sets. The first data set is covidcases, which contains the weekly case and death counts by county in the United States for 2020; the second data set is mobility, which contains daily mobility estimates by state in 2020; and the third data set is lockdowndates, which contains the start and end dates for statewide stay at home orders. Take a look at the first few rows of each data frame below and read the documentation for the column descriptions.

suppressPackageStartupMessages(library(tidyverse))
suppressPackageStartupMessages(library(HDSinRdata))
data(covidcases)
data(lockdowndates)
data(mobility)

head(covidcases)
#> # A tibble: 6 × 5
#> # Groups:   state, county, week [6]
#>   state   county   week weekly_cases weekly_deaths
#>   <chr>   <chr>   <dbl>        <int>         <int>
#> 1 Alabama Autauga    12            3             0
#> 2 Alabama Autauga    13            3             0
#> 3 Alabama Autauga    14            2             1
#> 4 Alabama Autauga    15           11             1
#> 5 Alabama Autauga    16            5             1
#> # ℹ 1 more row

head(mobility)
#> # A tibble: 6 × 5
#> # Groups:   state [1]
#>   state   date       samples   m50 m50_index
#>   <chr>   <chr>        <int> <dbl>     <dbl>
#> 1 Alabama 2020-03-01  267652  10.9      76.9
#> 2 Alabama 2020-03-02  287264  14.3      98.6
#> 3 Alabama 2020-03-03  292018  14.2      98.2
#> 4 Alabama 2020-03-04  298704  13.1      89.7
#> 5 Alabama 2020-03-05  288218  14.8     102. 
#> # ℹ 1 more row

head(lockdowndates)
#> # A tibble: 6 × 3
#>   State      Lockdown_Start Lockdown_End
#>   <chr>      <chr>          <chr>       
#> 1 Alabama    2020-04-04     2020-04-30  
#> 2 Alaska     2020-03-28     2020-04-24  
#> 3 Arizona    2020-03-31     2020-05-15  
#> 4 Arkansas   None           None        
#> 5 California 2020-03-19     2020-08-28  
#> # ℹ 1 more row
…
After coding these columns as dates, we can access information such as the day, month, year, or week from them. These functions are all available in the lubridate package, which is a package in the tidyverse that allows us to manipulate dates.

month(mobility$date[1])
#> [1] 3
week(mobility$date[1])
#> [1] 9

Next, we add a date column to covidcases. In this case, we need to use the week number to find the date. Luckily, we can add days, months, weeks, or years to dates in the lubridate package. January 1, 2020 was a Wednesday and is counted as the first week, so to find the corresponding Sunday for each week, we add the recorded week number minus one to December 29, 2019 (the last Sunday before 2020). We show a simple example of adding one week to this date below before doing this conversion for the entire column.

as.Date("2019-12-29")+weeks(1)
#> [1] "2020-01-05"

covidcases$date <- as.Date("2019-12-29")+weeks(covidcases$week-1)
head(covidcases)
#> # A tibble: 6 × 6
#> # Groups:   state, county, week [6]
#>   state   county   week weekly_cases weekly_deaths date      
#>   <chr>   <chr>   <dbl>        <int>         <int> <date>    
#> 1 Alabama Autauga    12            3             0 2020-03-15
#> 2 Alabama Autauga    13            3             0 2020-03-22
#> 3 Alabama Autauga    14            2             1 2020-03-29
#> 4 Alabama Autauga    15           11             1 2020-04-05
#> 5 Alabama Autauga    16            5             1 2020-04-12
#> # ℹ 1 more row
…
In our case, we want to take the lockdown start and end columns and create two new columns: one column will indicate whether or not a date represents the start or end of a lockdown, and the other will contain the date itself. These are called the key and value columns, respectively. The key column will get its values from the names of the columns we are transforming (or the keys) whereas the value column will get its values from the entries in those columns (or the values).

The pivot_longer() function takes in a data table, the columns cols that we are pivoting to longer form, the column name names_to that will store the data from the previous column names, and the column name values_to for the column that will store the information from the columns gathered. In our case, we will name the first column Lockdown_Event since it will contain whether each date is the start or end of a lockdown, and we will name the second column Date. Take a look at the result below.

lockdown_long <- lockdowndates %>%
  pivot_longer(cols=c("Lockdown_Start", "Lockdown_End"), 
               names_to="Lockdown_Event", values_to="Date") %>%
  mutate(Date = as.Date(Date, formula ="%Y-%M-%D"), 
         Lockdown_Event = ifelse(Lockdown_Event=="Lockdown_Start", 
                                 "Start", "End")) %>%
  na.omit()
head(lockdown_long)
#> # A tibble: 6 × 3
#>   State   Lockdown_Event Date      
#>   <chr>   <chr>          <date>    
#> 1 Alabama Start          2020-04-04
#> 2 Alabama End            2020-04-30
#> 3 Alaska  Start          2020-03-28
#> 4 Alaska  End            2020-04-24
#> 5 Arizona Start          2020-03-31
#> # ℹ 1 more row

In R, we can also transform our data in the opposite direction (from long form to wide form instead of from wide form to long form) using the function pivot_wider(). This function again first takes in a data table but now we specify the arguments names_from and values_from. The former indicates the column that R should get the new column names from, and the latter indicates where the row values should be taken from. For example, in order to pivot our lockdown data back to wide form below, we specify that names_from is the lockdown event and values_from is the date itself. Now we are back to the same form as before!

lockdown_wide <- pivot_wider(lockdown_long, names_from=Lockdown_Event, 
                             values_from=Date)
head(lockdown_wide)
#> # A tibble: 6 × 3
#>   State      Start      End       
#>   <chr>      <date>     <date>    
#> 1 Alabama    2020-04-04 2020-04-30
#> 2 Alaska     2020-03-28 2020-04-24
#> 3 Arizona    2020-03-31 2020-05-15
#> 4 California 2020-03-19 2020-08-28
#> 5 Colorado   2020-03-26 2020-04-26
#> # ℹ 1 more row

Here’s another example: suppose that I want to create a data frame where the columns correspond to the number of cases for each state in New England and the rows correspond to the numbered months. First, I need to filter my data to New England and then summarize my data to find the number of cases per month. I use the month() function to be able to group by month and state. Additionally, you can see that I add an ungroup() at the end. When we summarize on data grouped by more than one variable, the summarized output will still be grouped. In this case, the warning message states that the data is still grouped by state.

ne_cases <- covidcases %>% 
  filter(state %in% c("Maine", "Vermont", "New Hampshire", "Connecticut", "Rhode Island",
                                  "Massachusetts")) %>%
  mutate(month = month(date)) %>%
  group_by(state, month) %>%
  summarize(total_cases = sum(weekly_cases)) %>%
  ungroup()
head(ne_cases)
#> # A tibble: 6 × 3
#>   state       month total_cases
#>   <chr>       <dbl>       <int>
#> 1 Connecticut     3        6872
#> 2 Connecticut     4       18575
#> 3 Connecticut     5       11936
#> 4 Connecticut     6        2619
#> 5 Connecticut     7        2290
#> # ℹ 1 more row

Now, I need to convert this data to wide format with a column for each state, so my names_from argument will be state. Further, I want each row to have the case values for each state, so my values_from argument will be total_cases. The format of this data may not be tidy, but it allows me to quickly compare cases across states.

pivot_wider(ne_cases, names_from=state, values_from=total_cases)
#> # A tibble: 7 × 7
#>   month Connecticut Maine Massachusetts `New Hampshire` `Rhode Island`
#>   <dbl>       <int> <int>         <int>           <int>          <int>
#> 1     3        6872   434         13118             651            827
#> 2     4       18575   725         47499            1649           6843
#> 3     5       11936  1575         28798            2179          14653
#> 4     6        2619  1185          5545             751           1426
#> 5     7        2290  1046          7621             827          65562
#> # ℹ 2 more rows
#> # ℹ 1 more variable: Vermont <int>
…
We will first demonstrate a left join using the left_join() function. This function takes in two data tables (table1 and table 2) and the columns to match rows by. In a left join, for every row of table1, we look for all matching rows in table2 and add any columns not used to do the matching. Thus, every row in table1 corresponds to at least one entry in the resulting table but possibly more if there are multiple matches. Below, we use a left join to add the lockdown information to our covidcases data. In this case, the first table will be covidcases and we will match by state. Since the state column has a slightly different name in the two data frames (“state” in covidcases and “State” in lockdowndates), we specify that state is equivalent to State in the by argument.

covidcases_full <- left_join(covidcases, lockdowndates, by=c("state"="State"))
head(covidcases_full)
#> # A tibble: 6 × 8
#> # Groups:   state, county, week [6]
#>   state   county   week weekly_cases weekly_deaths date      
#>   <chr>   <chr>   <dbl>        <int>         <int> <date>    
#> 1 Alabama Autauga    12            3             0 2020-03-15
#> 2 Alabama Autauga    13            3             0 2020-03-22
#> 3 Alabama Autauga    14            2             1 2020-03-29
#> 4 Alabama Autauga    15           11             1 2020-04-05
#> 5 Alabama Autauga    16            5             1 2020-04-12
#> # ℹ 1 more row
#> # ℹ 2 more variables: Lockdown_Start <date>, Lockdown_End <date>

These two new columns will allow us to determine whether the start of each recorded week was during a lockdown. We use the between function to create a new column lockdown before dropping the two date columns. We can check that this column worked as expected by choosing a single county to look at.

covidcases_full <- covidcases_full %>%
  mutate(lockdown = between(date, Lockdown_Start, Lockdown_End)) %>%
  select(-c(Lockdown_Start, Lockdown_End)) 
covidcases_full %>%
  filter(state == "Alabama", county == "Jefferson", date <= as.Date("2020-05-10"))
#> # A tibble: 10 × 7
#> # Groups:   state, county, week [10]
#>   state   county     week weekly_cases weekly_deaths date       lockdown
#>   <chr>   <chr>     <dbl>        <int>         <int> <date>     <lgl>   
#> 1 Alabama Jefferson    11           19             0 2020-03-08 FALSE   
#> 2 Alabama Jefferson    12           66             0 2020-03-15 FALSE   
#> 3 Alabama Jefferson    13          153             0 2020-03-22 FALSE   
#> 4 Alabama Jefferson    14          156             8 2020-03-29 FALSE   
#> 5 Alabama Jefferson    15          128             2 2020-04-05 TRUE    
#> # ℹ 5 more rows

We now want to add in the mobility data. In the join above, we wanted to keep any observation in covidcases regardless if it was in the lockdowndates data frame. Therefore, we used a left join. In this case, we will only want to keep observations that have mobility date for that state on each date. This indicates that we want to use an inner join. The function inner_join() takes in two data tables (table1 and table2) and the columns to match rows by. The function only keeps rows in table1 that match to a row in table2. Again, those columns in table2 not used to match with table1 are added to the resulting outcome. In this case, we match by both state and date.

covidcases_full <- inner_join(covidcases_full, mobility, by = c("state", "date")) %>%
  select(-c(samples, m50_index))
head(covidcases_full)
#> # A tibble: 6 × 8
#> # Groups:   state, county, week [6]
#>   state   county   week weekly_cases weekly_deaths date       lockdown
#>   <chr>   <chr>   <dbl>        <int>         <int> <date>     <lgl>   
#> 1 Alabama Autauga    12            3             0 2020-03-15 FALSE   
#> 2 Alabama Autauga    13            3             0 2020-03-22 FALSE   
#> 3 Alabama Autauga    14            2             1 2020-03-29 FALSE   
#> 4 Alabama Autauga    15           11             1 2020-04-05 TRUE    
#> 5 Alabama Autauga    16            5             1 2020-04-12 TRUE    
#> # ℹ 1 more row
#> # ℹ 1 more variable: m50 <dbl>
…
