Mastering Health Data Science Using R - 9 Hypothesis Testing
…
We can see in the figure that this is a heavy-tailed distribution. Below, we find the 10 counties with the highest rates and see that there are some counties that very few total abortions but that have some of the highest abortion rates. This indicates a small population. On the other hand, we also observe Harris county, which contains the city of Houston and has both a high total abortion count and a high abortion rate.

tex_itop %>% 
  filter(year==2021) %>% 
  slice_max(n=10, total_rate) %>%
  dplyr::select(c(county, total_itop, total_rate))
#> # A tibble: 10 × 3
#>   county  total_itop total_rate
#>   <chr>        <dbl>      <dbl>
#> 1 Loving           1      111. 
#> 2 Terrell          5       50  
#> 3 Concho           4       13.9
#> 4 Harris       14122       13.5
#> 5 Irion            3       12.9
#> # ℹ 5 more rows
…
9.2 Correlation and Covariance

We now look at two sample tests. To start, we look at the 2020 and 2021 rates by county. We pivot our data into a wider format in order to create 2020 and 2021 rate columns, and, this time, we filter out the Loving and Terrel counties to remove outliers. We then create a scatter plot of 2021 vs. 2020 rates and observe a linear correlation between the two.

county_rates <- tex_itop %>%
  dplyr::select(c(county, total_rate, year)) %>%
  filter(!(county %in% c("Terrell", "Loving")), 
         year %in% c(2020, 2021)) %>%
  pivot_wider(names_from = year, values_from = total_rate) %>%
  na.omit() %>%
  rename("y2020"="2020", "y2021"="2021")
head(county_rates)
#> # A tibble: 6 × 3
#>   county   y2020 y2021
#>   <chr>    <dbl> <dbl>
#> 1 Anderson  6.84 5.07 
#> 2 Andrews   1.85 0.792
#> 3 Angelina  5.81 6.00 
#> 4 Aransas   3.44 7.18 
#> 5 Archer    1.47 0.733
#> # ℹ 1 more row
…
